{
    "options_entries_reset": {
        "message": "Återställ standardinställningar",
        "description": "Options page link for loading the entries defaults"
    },
    "options_entries_reset_undo_text": {
        "message": "Standardinställningar återställda",
        "description": "Text of popup that is shown after the reset link has been clicked"
    },
    "options_entries_reset_undo_button": {
        "message": "Ångra återställning",
        "description": "Label of button for undoing a reset (displayed below the text that asserts that the options have just been reset)"
    },
    "extension_description": {
        "message": "Gör det enkelt att byta webbläsarens User-Agent identifiering",
        "description": "Extension description"
    },
    "options_entries_switch_text": {
        "message": "Byt till textläge",
        "description": "Options page link for switching from table to text mode"
    },
    "options_entries_switch_table": {
        "message": "Byt till tabellläge",
        "description": "Options page link for switching from text to table mode"
    },
    "options_entries_heading_enabled": {
        "message": "Aktiverad",
        "description": "Options page table editor heading for the column allowing to enabled or disable items"
    },
    "options_entries_heading_label": {
        "message": "Etikett",
        "description": "Options page table editor heading for the column with user-facing User-Agent-String labels"
    },
    "options_entries_heading_category": {
        "message": "Kategori",
        "description": "Options page table editor heading for the column with general category of the given User-Agent-String"
    },
    "options_entries_heading_string": {
        "message": "Sträng",
        "description": "Options page table editor heading for the column with the actual server-reported User-Agent-Strings"
    },
    "useragent_category_desktop": {
        "message": "Skrivbordet",
        "description": "Default category label for browsers on desktop devices"
    },
    "useragent_category_mobile": {
        "message": "Mobil",
        "description": "Default category label for browsers on mobile devices"
    },
    "icon_title_random": {
        "message": "Slumpmässigt läge",
        "description": "Text displayed in the browser action icon tooltip when the User-Agent header is choosen at random"
    },
    "icon_title_enabled": {
        "message": "Aktiverad",
        "description": "Text displayed in the browser action icon tooltip when request processing is being done because of the global setting"
    },
    "popup_item_default": {
        "message": "Standard",
        "description": "The label of the menu item that disables the User-Agent overrider and lets the browser send its default User-Agent string"
    },
    "popup_item_random_interval_unit_days": {
        "message": "Dag(ar)",
        "description": "A User-Agent randomization time interval"
    },
    "popup_item_random_interval_unit_hours": {
        "message": "Timm(ar)",
        "description": "A User-Agent randomization time interval"
    },
    "popup_item_random_interval_unit_minutes": {
        "message": "Minut(er)",
        "description": "A User-Agent randomization time interval"
    },
    "popup_item_random_interval_mode_timed": {
        "message": "Var:",
        "description": "The label of the menu item for enabling the time-based User-Agent randomization at regular intervals"
    },
    "popup_item_random_categories": {
        "message": "Kategorier:",
        "description": "The section header of the categories selection of random selection mode"
    },
    "popup_item_options": {
        "message": "Inställningar…",
        "description": "The label of the menu item for opening the extension's preference page"
    },
    "icon_title_disabled": {
        "message": "Avaktiverad",
        "description": "Text displayed in the browser action icon tooltip when no request processing is being done because of the global setting"
    },
    "useragent_category_other": {
        "message": "Annan",
        "description": "Default category label for unclassified client software"
    },
    "useragent_category_bot": {
        "message": "Bot",
        "description": "Default category label for search engine bots"
    },
    "option_popup_override_size_description": {
        "message": "Aktivera ifall popupen är för liten på din enhet",
        "description": "Description text of checkbox option to force the extension popup to a static/larger size than it would normally be according to the browser defaults"
    },
    "option_popup_override_size": {
        "message": "Tvinga standard popup- / menystorlek",
        "description": "Text of checkbox option to force the extension popup to a static/larger size than it would normally be according to the browser defaults (note that this also has a description attached)"
    },
    "option_badge_text": {
        "message": "Visa User-Agents som text på ikonen?",
        "description": "Text of checkbox option to show/hide the two to four letter abbreviations displayed ontop of the browser action icon"
    },
    "option_random_jitter": {
        "message": "Slumpmässig lägesvariation",
        "description": "Text of numeric option (0-100) for setting by how many per-cent the random-interval value should (on avarage) be varied"
    },
    "popup_item_random": {
        "message": "Aktivera slumpmässigt läge",
        "description": "The label of the menu item for enabling time-based User-Agent randomization"
    },
    "options_entries_caption": {
        "message": "User-Agent poster",
        "description": "Header text of the entries editor in the extension options"
    },
    "popup_item_random_interval_mode_restart": {
        "message": "Endast vid uppstart",
        "description": "The label of the menu item for enabling the time-based User-Agent randomization only on extension and browser startup"
    },
    "popup_item_override_tpl": {
        "message": "“$HOSTNAME$”",
        "description": "Label of an individual selectable override domain",
        "placeholders": {
            "hostname": {
                "content": "$1",
                "example": "https://www.example.net"
            }
        }
    },
    "icon_title_override_disabled": {
        "message": "Inaktiverad av överskridning",
        "description": "Text displayed in the browser action icon tooltip when no request processing is being done because of an override being set"
    },
    "popup_item_override": {
        "message": "Överskrid för domän",
        "description": "Label of the checkbox that can be used to switch from setting the global User-Agent string to a per-site value"
    },
    "icon_title_override_enabled": {
        "message": "Aktiverad av överskridning",
        "description": "Text displayed in the browser action icon tooltip when request processing is being done because of an override being set"
    }
}
