{
    "extension_description": {
        "message": "Jednoduše změňte User-Agent prohlížeče",
        "description": "Extension description"
    },
    "options_entries_caption": {
        "message": "Položky User-Agent",
        "description": "Header text of the entries editor in the extension options"
    },
    "options_entries_reset": {
        "message": "Obnovit do výchozího nastavení",
        "description": "Options page link for loading the entries defaults"
    },
    "options_entries_reset_undo_text": {
        "message": "Výchozí hodnoty byly obnoveny",
        "description": "Text of popup that is shown after the reset link has been clicked"
    },
    "options_entries_reset_undo_button": {
        "message": "Vrátit obnovení",
        "description": "Label of button for undoing a reset (displayed below the text that asserts that the options have just been reset)"
    },
    "options_entries_switch_text": {
        "message": "Přepnutí do textového režimu",
        "description": "Options page link for switching from table to text mode"
    },
    "options_entries_switch_table": {
        "message": "Přepnutí do režimu tabulky",
        "description": "Options page link for switching from text to table mode"
    },
    "options_entries_heading_label": {
        "message": "Popisek",
        "description": "Options page table editor heading for the column with user-facing User-Agent-String labels"
    },
    "options_entries_heading_string": {
        "message": "Řetězec",
        "description": "Options page table editor heading for the column with the actual server-reported User-Agent-Strings"
    },
    "icon_title_enabled": {
        "message": "Povoleno",
        "description": "Text displayed in the browser action icon tooltip when request processing is being done"
    },
    "icon_title_disabled": {
        "message": "Zakázáno",
        "description": "Text displayed in the browser action icon tooltip when no request processing is being done"
    },
    "popup_item_options": {
        "message": "Předvolby…",
        "description": "The label of the menu item for opening the extension's preference page"
    },
    "popup_item_default": {
        "message": "Výchozí",
        "description": "The label of the menu item that disables the User-Agent-Overrider and lets the browser send its default User-Agent-String"
    },
    "option_badge_text": {
        "message": "Zobrazit zkratku User-Agentu na ikoně?",
        "description": "Text of checkbox option to show/hide the two to four letter abbreviations displayed ontop of the browser action icon"
    },
    "option_random_jitter": {
        "message": "Odchylka náhodného intervalu (procent)",
        "description": "Text of numeric option (0-100) for setting by how many per-cent the random-interval value should (on avarage) be varied"
    },
    "options_entries_heading_enabled": {
        "message": "Zapnuto",
        "description": "Options page table editor heading for the column allowing to enabled or disable items"
    },
    "options_entries_heading_category": {
        "message": "Kategorie",
        "description": "Options page table editor heading for the column with general category of the given User-Agent-String"
    },
    "useragent_category_desktop": {
        "message": "Desktopové",
        "description": "Default category label for browsers on desktop devices"
    },
    "useragent_category_mobile": {
        "message": "Mobil",
        "description": "Default category label for browsers on mobile devices"
    },
    "useragent_category_bot": {
        "message": "Boty",
        "description": "Default category label for search engine bots"
    },
    "useragent_category_other": {
        "message": "Ostatní",
        "description": "Default category label for unclassified client software"
    },
    "icon_title_random": {
        "message": "Voleno náhodně",
        "description": "Text displayed in the browser action icon tooltip when the User-Agent header is choosen at random"
    },
    "icon_title_override_enabled": {
        "message": "Vynuceně zapnuto",
        "description": "Text displayed in the browser action icon tooltip when request processing is being done because of an override being set"
    },
    "icon_title_override_disabled": {
        "message": "Vynuceně vypnuto",
        "description": "Text displayed in the browser action icon tooltip when no request processing is being done because of an override being set"
    },
    "popup_item_override": {
        "message": "Nastavení pro doménu",
        "description": "Label of the checkbox that can be used to switch from setting the global User-Agent string to a per-site value"
    },
    "popup_item_override_tpl": {
        "message": "„$HOSTNAME$“",
        "description": "Label of an individual selectable override domain"
    },
    "popup_item_random": {
        "message": "Volit náhodně",
        "description": "The label of the menu item for enabling time-based User-Agent randomization"
    },
    "popup_item_random_categories": {
        "message": "Kategorie:",
        "description": "The section header of the categories selection of random selection mode"
    },
    "popup_item_random_interval_mode_restart": {
        "message": "Jen po spuštění",
        "description": "The label of the menu item for enabling the time-based User-Agent randomization only on extension and browser startup"
    },
    "popup_item_random_interval_mode_timed": {
        "message": "Každých:",
        "description": "The label of the menu item for enabling the time-based User-Agent randomization at regular intervals"
    },
    "popup_item_random_interval_unit_minutes": {
        "message": "Minuty",
        "description": "A User-Agent randomization time interval"
    },
    "popup_item_random_interval_unit_hours": {
        "message": "Hodiny",
        "description": "A User-Agent randomization time interval"
    },
    "popup_item_random_interval_unit_days": {
        "message": "Dny",
        "description": "A User-Agent randomization time interval"
    }
}
