{
    "popup_item_random_interval_unit_minutes": {
        "message": "Minuutti",
        "description": "A User-Agent randomization time interval"
    },
    "popup_item_random_interval_unit_hours": {
        "message": "Tunti",
        "description": "A User-Agent randomization time interval"
    },
    "extension_description": {
        "message": "Korvaa helposti selaimen User-Agent -merkkijono",
        "description": "Extension description"
    },
    "popup_item_override": {
        "message": "Säädä verkkotunnuskohtaiseksi",
        "description": "Label of the checkbox that can be used to switch from setting the global User-Agent string to a per-site value"
    },
    "icon_title_override_disabled": {
        "message": "Estetty ohittamissäännön vuoksi",
        "description": "Text displayed in the browser action icon tooltip when no request processing is being done because of an override being set"
    },
    "icon_title_override_enabled": {
        "message": "Sallittu ohittamissäännön vuoksi",
        "description": "Text displayed in the browser action icon tooltip when request processing is being done because of an override being set"
    },
    "options_entries_caption": {
        "message": "User-Agent kirjaukset",
        "description": "Header text of the entries editor in the extension options"
    },
    "popup_item_default": {
        "message": "Oletus",
        "description": "The label of the menu item that disables the User-Agent overrider and lets the browser send its default User-Agent string"
    },
    "popup_item_random_interval_unit_days": {
        "message": "Päivä",
        "description": "A User-Agent randomization time interval"
    },
    "popup_item_random_interval_mode_timed": {
        "message": "Joka:",
        "description": "The label of the menu item for enabling the time-based User-Agent randomization at regular intervals"
    },
    "popup_item_random_interval_mode_restart": {
        "message": "Vain käynnistyessä",
        "description": "The label of the menu item for enabling the time-based User-Agent randomization only on extension and browser startup"
    },
    "popup_item_random_categories": {
        "message": "Kategoriat:",
        "description": "The section header of the categories selection of random selection mode"
    },
    "popup_item_random": {
        "message": "Salli satunnaistila",
        "description": "The label of the menu item for enabling time-based User-Agent randomization"
    },
    "popup_item_override_tpl": {
        "message": "“$HOSTNAME$”",
        "description": "Label of an individual selectable override domain",
        "placeholders": {
            "hostname": {
                "content": "$1",
                "example": "https://www.example.net"
            }
        }
    },
    "popup_item_options": {
        "message": "Asetukset…",
        "description": "The label of the menu item for opening the extension's preference page"
    },
    "icon_title_enabled": {
        "message": "Päällä",
        "description": "Text displayed in the browser action icon tooltip when request processing is being done because of the global setting"
    },
    "icon_title_disabled": {
        "message": "Pois päältä",
        "description": "Text displayed in the browser action icon tooltip when no request processing is being done because of the global setting"
    },
    "icon_title_random": {
        "message": "Satunnaistila",
        "description": "Text displayed in the browser action icon tooltip when the User-Agent header is choosen at random"
    },
    "useragent_category_other": {
        "message": "Muu",
        "description": "Default category label for unclassified client software"
    },
    "useragent_category_bot": {
        "message": "Botti",
        "description": "Default category label for search engine bots"
    },
    "useragent_category_mobile": {
        "message": "Mobiili",
        "description": "Default category label for browsers on mobile devices"
    },
    "useragent_category_desktop": {
        "message": "Työpöytä",
        "description": "Default category label for browsers on desktop devices"
    },
    "options_entries_heading_string": {
        "message": "Merkkijono",
        "description": "Options page table editor heading for the column with the actual server-reported User-Agent-Strings"
    },
    "options_entries_heading_category": {
        "message": "Kategoria",
        "description": "Options page table editor heading for the column with general category of the given User-Agent-String"
    },
    "options_entries_heading_label": {
        "message": "Leima",
        "description": "Options page table editor heading for the column with user-facing User-Agent-String labels"
    },
    "options_entries_heading_enabled": {
        "message": "Sallittu",
        "description": "Options page table editor heading for the column allowing to enabled or disable items"
    },
    "options_entries_switch_table": {
        "message": "Siirry tablettitilaan",
        "description": "Options page link for switching from text to table mode"
    },
    "options_entries_switch_text": {
        "message": "Siirry tekstitilaan",
        "description": "Options page link for switching from table to text mode"
    },
    "options_entries_reset_undo_button": {
        "message": "Kumoa nollaus",
        "description": "Label of button for undoing a reset (displayed below the text that asserts that the options have just been reset)"
    },
    "options_entries_reset_undo_text": {
        "message": "Oletusasetukset palautettu",
        "description": "Text of popup that is shown after the reset link has been clicked"
    },
    "options_entries_reset": {
        "message": "Palauta oletusasetukset",
        "description": "Options page link for loading the entries defaults"
    },
    "option_random_jitter": {
        "message": "Satunnaistilan vaihtelevuus",
        "description": "Text of numeric option (0-100) for setting by how many per-cent the random-interval value should (on avarage) be varied"
    },
    "option_popup_override_size_description": {
        "message": "Salli, jos ponnahdusikkuna on näkyy liian pienenä laitteellasi",
        "description": "Description text of checkbox option to force the extension popup to a static/larger size than it would normally be according to the browser defaults"
    },
    "option_popup_override_size": {
        "message": "Pakota oletuskoko ponnahdusikkunoihin/valikoihin",
        "description": "Text of checkbox option to force the extension popup to a static/larger size than it would normally be according to the browser defaults (note that this also has a description attached)"
    },
    "option_badge_text": {
        "message": "Näytä User-Agent tekstinä kuvakkeen päällä?",
        "description": "Text of checkbox option to show/hide the two to four letter abbreviations displayed ontop of the browser action icon"
    }
}
