{
    "option_badge_text": {
        "message": "चिन्ह वर वापरकर्ता एजंट बॅज मजकूर म्हणून दर्शवायचे?",
        "description": "Text of checkbox option to show/hide the two to four letter abbreviations displayed ontop of the browser action icon"
    },
    "extension_description": {
        "message": "ब्राउझरच्या वापरकर्त्या-एजंट स्ट्रिंगला सहजपणे अधिलिखित करा",
        "description": "Extension description"
    }
}
